Chapter 11 Geospatial Methods and GIS | IDEA R&A Manual
…
get_decennial(), which grants access to the 2000, 2010, and 2020 decennial US Census APIs, and

get_acs(), which grants access to the 1-year and 5-year American Community Survey APIs.

Let’s get median age by state in 2010:

age10 <- get_decennial(geography = "state", 
                       variables = "P013001", 
                       year = 2010)
#> Getting data from the 2010 decennial Census
#> Using Census Summary File 1

age10
#> # A tibble: 52 × 4
#>    GEOID NAME        variable value
#>    <chr> <chr>       <chr>    <dbl>
#>  1 01    Alabama     P013001   37.9
#>  2 02    Alaska      P013001   33.8
#>  3 04    Arizona     P013001   35.9
#>  4 05    Arkansas    P013001   37.4
#>  5 06    California  P013001   35.2
#>  6 22    Louisiana   P013001   35.8
#>  7 21    Kentucky    P013001   38.1
#>  8 08    Colorado    P013001   36.1
#>  9 09    Connecticut P013001   40  
#> 10 10    Delaware    P013001   38.8
#> # ℹ 42 more rows
…
